<?xml version="1.0" encoding="utf-8"?>
<!-- Generator: Adobe Illustrator 15.1.0, SVG Export Plug-In  -->
<!DOCTYPE svg PUBLIC "-//W3C//DTD SVG 1.1//EN" "http://www.w3.org/Graphics/SVG/1.1/DTD/svg11.dtd" [
	<!ENTITY ns_flows "http://ns.adobe.com/Flows/1.0/">
]>
<svg version="1.1"
	 xmlns="http://www.w3.org/2000/svg" xmlns:xlink="http://www.w3.org/1999/xlink" xmlns:a="http://ns.adobe.com/AdobeSVGViewerExtensions/3.0/"
	 x="0px" y="0px" width="30px" height="30px" viewBox="0.5 -0.906 30 30" enable-background="new 0.5 -0.906 30 30"
	 xml:space="preserve">
<defs>
</defs>
<path fill="#FFFFFF" stroke="#FFFFFF" stroke-miterlimit="10" d="M3.667,27.688h23.665c1.744,0,3.168-1.423,3.168-3.131V13.774
	c0-0.285-0.249-0.534-0.533-0.534c-0.285,0-0.534,0.249-0.534,0.534v10.783c0,1.139-0.961,2.064-2.101,2.064H3.667
	c-1.175,0-2.1-0.926-2.1-2.064V13.774c0-0.285-0.249-0.534-0.534-0.534S0.5,13.489,0.5,13.774v10.783
	C0.5,26.301,1.923,27.688,3.667,27.688z"/>
<path fill="#FFFFFF" stroke="#FFFFFF" stroke-miterlimit="10" d="M15.162,0.5c-0.285,0-0.534,0.249-0.534,0.534V22.03l-5.551-4.804
	c-0.214-0.179-0.569-0.179-0.748,0.071C8.151,17.51,8.151,17.867,8.4,18.044l6.477,5.552l0,0c0.035,0.035,0.106,0.07,0.142,0.07
	c0,0,0,0,0.036,0s0.107,0.036,0.178,0.036c0.071,0,0.107,0,0.178-0.036c0,0,0,0,0.036,0c0.036-0.035,0.106-0.035,0.142-0.07l0,0
	l6.478-5.552c0.213-0.178,0.248-0.534,0.07-0.747c-0.178-0.214-0.533-0.25-0.747-0.071l-5.694,4.769V0.998
	C15.696,0.713,15.482,0.5,15.162,0.5z"/>
</svg>
