<?xml version="1.0" encoding="utf-8"?>
<!-- Generator: Adobe Illustrator 18.1.0, SVG Export Plug-In . SVG Version: 6.00 Build 0)  -->
<svg version="1.1" id="Layer_1" xmlns="http://www.w3.org/2000/svg" xmlns:xlink="http://www.w3.org/1999/xlink" x="0px" y="0px"
	 viewBox="276 366 60 60" enable-background="new 276 366 60 60" xml:space="preserve">
<rect x="-602" y="478.1" fill="none" width="612" height="612"/>
<path fill="#2C75BA" d="M306.8,367.8c-9.5,0-17.2,8-17.2,17.9c0,1.5,0.1,2.1,0.1,2.1c0.2,1.3,0.6,2.9,0.8,3.5
	c0.2,0.7,0.5,1.5,0.7,1.9c0.2,0.4,1.1,2.3,1.7,3.5l12.9,27.4c0.6,1.2,1.5,1.2,2,0l12.9-27.4c0.6-1.2,1.2-2.4,1.3-2.8
	c0.2-0.4,0.8-1.9,1-2.5c0.2-0.7,0.6-2.3,0.8-3.5c0,0,0.1-0.6,0.1-2.1C324,375.8,316.3,367.8,306.8,367.8z M306.8,395.3
	c-5.6,0-10.1-4.5-10.1-10.1c0-5.6,4.5-10.1,10.1-10.1c5.6,0,10.1,4.5,10.1,10.1C316.9,390.8,312.4,395.3,306.8,395.3z"/>
</svg>
