<?xml version="1.0" encoding="utf-8"?>
<!-- Generator: Adobe Illustrator 18.1.1, SVG Export Plug-In . SVG Version: 6.00 Build 0)  -->
<svg version="1.1" id="Layer_1" xmlns="http://www.w3.org/2000/svg" xmlns:xlink="http://www.w3.org/1999/xlink" x="0px" y="0px"
	 viewBox="0 0 1306 445.3" enable-background="new 0 0 1306 445.3" xml:space="preserve">
<g>
	<g>
		<rect x="966" y="121.8" fill="#FAFAFA" width="258.9" height="209.5"/>
		<rect x="994.3" y="143.5" fill="#C4C0BC" width="9.2" height="166.5"/>
		<rect x="1009" y="143.5" fill="#C4C0BC" width="9.2" height="166.5"/>
		<rect x="1023.6" y="143.5" fill="#C4C0BC" width="9.2" height="166.5"/>
		<rect x="1038.2" y="143.5" fill="#C4C0BC" width="9.2" height="166.5"/>
		<rect x="1052.8" y="201.7" fill="#C4C0BC" width="9.2" height="108.3"/>
		<rect x="1160" y="143.5" fill="#C4C0BC" width="9.2" height="166.5"/>
		<rect x="1174.6" y="143.5" fill="#C4C0BC" width="9.2" height="166.5"/>
		<rect x="1189.2" y="177.4" fill="#C4C0BC" width="9.2" height="132.5"/>
		<rect x="1076.3" y="233.1" fill="#C4C0BC" width="9.2" height="76.8"/>
		<rect x="1090.9" y="233.1" fill="#C4C0BC" width="9.2" height="76.8"/>
		<rect x="1105.5" y="233.1" fill="#C4C0BC" width="9.2" height="76.8"/>
		<rect x="1120.9" y="233.1" fill="#C4C0BC" width="9.2" height="76.9"/>
		<rect x="1135.1" y="252.1" fill="#C4C0BC" width="9.2" height="57.8"/>
		<rect x="1076.1" y="143.5" fill="#C4C0BC" width="9.2" height="76.8"/>
		<rect x="1090.7" y="143.5" fill="#C4C0BC" width="9.2" height="76.8"/>
		<rect x="1105.4" y="143.5" fill="#C4C0BC" width="9.2" height="76.8"/>
		<rect x="1120.8" y="143.5" fill="#C4C0BC" width="9.2" height="76.9"/>
		<rect x="1135" y="163.8" fill="#C4C0BC" width="9.2" height="56.6"/>
	</g>
	<g>
		<g>
			<g>
				<g>
					<g>
						<g id="XMLID_16_">
							<g>
								<path fill="#FEE1C7" d="M1157.3,276.8c-0.6,0.7,3.5,10.8,5.9,9.8c0.7-0.3,1.6-1,1.5-1.4c-0.1-0.3-0.2-0.6-0.4-0.9
									c-0.5-0.8-1-1.6-1.4-2.4c0,0,0,0,0,0c-0.2-0.4-0.5-0.8-0.7-1.1c-1-1.6-2.4-3.6-4.2-3.9c0,0-0.1,0-0.1,0
									C1157.7,276.7,1157.5,276.7,1157.3,276.8C1157.3,276.8,1157.3,276.8,1157.3,276.8z"/>
								<path fill="#FEE1C7" d="M1095.5,270.3c0,2.7,5.2,8.8,7.9,6.9c0.7-0.5,2.1-2.3,2.3-2.9
									C1107.2,269.4,1095.6,262.8,1095.5,270.3z"/>
								<path fill="#FEE1C7" d="M1083.1,284.7c-0.3,2.6,4.2,9.3,7.1,7.7c0.7-0.4,2.3-2.1,2.6-2.6
									C1094.8,285,1084,277.2,1083.1,284.7z"/>
								<path fill="#FEE1C7" d="M1076,301.8c-0.3,2.5,3.9,8.6,6.6,7.2c0.7-0.4,2.2-1.9,2.4-2.5C1086.9,302,1076.8,294.8,1076,301.8z
									"/>
								<path fill="#C06B59" d="M1105.9,284.3c4.7,6.3,8.3,10.5,14.9,15c7.2,4.8,9,7.2,16.1,11.9l0,0c0.5,0.3,1.2,0.9,1.3,1.5
									c0,0.7-0.7,1-1.2,0.7c-9.2-3.7-25.1-10.9-32.5-17.8c-4.1-3.8-12.4-16.9-19.6-14.1c-8,3.2,5.3,16.4,8.3,19.7
									c5.3,5.7,9.3,9.2,16.3,13.1c7.6,4.2,12.9,7.2,20.6,11.4c2,1,1.3,3.6-0.8,2.9c-9.2-3.7-24.1-9.1-31.5-16
									c-4.1-3.8-12.4-16.9-19.6-14.1c-8,3.2,5.3,16.4,8.3,19.7c5.3,5.7,9.3,9.2,16.3,13.1c7.6,4.2,12.9,7.2,20.6,11.4l0,0
									c1,0.6,2.3,1.4,2.4,2.5c0.2,1.8-1.3,2.1-2.7,1.6l0,0c-8.3-2.5-19-5.3-25.8-11.1c-3.8-3.2-11.6-14.7-18-11.2
									c-1,0.5-1.5,1.2-1.9,1.9c2-4.1,10.1,2.1,8.6,6c-0.2,0.5-1.6,2.1-2.3,2.5c-1.7,0.9-3.9-1-5.4-3.3c2.3,4.3,7.4,8.9,9.1,10.6
									c4.9,4.9,9.6,8.4,15.9,11.3c6.9,3.2,14.4,6.5,21.4,9.7c4.3,1.6,8.6,5,12.9,7c8.1,3.7,18,7.6,26.9,8.6
									c4,0.4,7.9-0.6,11.7-0.4c5.9,0.3,16.2,5.6,21.9,8l0.2,0.1c2.1-1.1,4-4.7,5-6.7c1.9-3.7,3.1-6.9,4.5-10.8
									c2.8-7.7,5.7-15.3,8-23.2c0.5-1.7,0.8-3.4,1.5-5l0-0.1c-5.5-2-11.8-6.2-16.3-8.9l-0.3,0c0.1-3.5-0.5-7-1.8-10
									c-1.9-4.5-4.2-6.6-7-10.4c-5.4-7.1-8.8-12.7-15.8-17.4c-3.5-2.4-7.6-4.9-10.7-8c-0.5-0.5-1-1.2-1.5-2
									c0.2,0.3,0.3,0.6,0.4,0.9c0.2,0.4-0.8,1.1-1.5,1.4c-2.5,1-6.6-9-5.9-9.8c-9.9,1.4-5.2,13.6-2.3,17.5
									c5.2,7,13.6,12.8,16.3,19.8c-6.2,1.8-21-12.1-26.3-15l0,0c-8.9-6-17.2-9.2-23.9-16.8c-3.7-4.2-16-18.3-23.4-15.6
									C1089.5,269.7,1103.2,280.7,1105.9,284.3z M1083.1,284.7c0.9-7.5,11.7,0.3,9.7,5c-0.2,0.6-1.8,2.2-2.6,2.6
									C1087.3,294,1082.8,287.4,1083.1,284.7z M1076,301.8c0.9-6.9,10.9,0.3,9,4.7c-0.2,0.5-1.7,2.1-2.4,2.5
									C1079.9,310.4,1075.7,304.2,1076,301.8z M1105.7,274.3c-0.2,0.6-1.6,2.4-2.3,2.9c-2.7,1.9-7.9-4.2-7.9-6.9
									C1095.6,262.8,1107.2,269.4,1105.7,274.3z"/>
								<path fill="#FEE1C7" d="M1077.5,326.5c-0.6,1.5-0.1,3.3,0.9,5.2c1.4,2.2,3.7,4.2,5.4,3.3c0.7-0.4,2.1-1.9,2.3-2.5
									C1087.6,328.7,1079.5,322.5,1077.5,326.5z"/>
							</g>
						</g>
					</g>
				</g>
				<g>
					<polygon fill="#DDDDDD" points="1244.2,347.5 1213.3,332.4 1185,390.1 1234.7,414.4 					"/>
					<polygon opacity="0.2" points="1244.2,347.5 1213.3,332.4 1205.3,348.7 1241.5,366.5 					"/>
				</g>
				<path fill="#483F49" d="M1306,372.2c-44.9-14-78.5-34.4-78.5-34.4l-29.4,69.2c42.4,18.1,78,30,107.8,37.3V372.2z"/>
				<path fill="#554957" d="M1306,394.2c-42.3-11.5-76.8-30.1-87.1-36l-20.7,48.9c42.4,18.1,78,30,107.8,37.3V394.2z"/>
			</g>
			<g>
				<polygon opacity="0.2" points="1128.8,61.8 1128.8,61.8 1128.8,61.8 				"/>
				<path fill="#853D38" d="M1136.6,74.3c1,7.4,5.2,14.8,7.1,22.2c1.5,6.2,1.9,15.7,9.2,20.5c8.1,5.4,12.7,1.1,26.9-0.2
					c14.6-1.3,6.2-19.7,1.5-28.1c-2.8-4.9-5.3-7.6-6-13.1c-0.6-4.9,0.1-11.3-3.2-13.9c-4.6-3.7-17.3-1.5-22.7-0.4
					C1140.2,63,1135.7,67.4,1136.6,74.3z"/>
				<g>
					<path fill="#FEE1C7" d="M1126.1,139.7c3.5,1.5,14.2-3.6,12.8-7.9c-0.3-1.1-2.3-4.7-3-5.2
						C1130.2,123.3,1115.7,135.1,1126.1,139.7z"/>
					<path fill="#C06B59" d="M1144.9,56.6c-7.9,3-13.1,6.4-19.3,11.1c-7.2,5.5-19.6,10-20.3,20.2c-0.5,7.2,1.7,18.3,2,25.5
						c0.3,6.9,0.9,13.8,3.8,20.1c8.7,6.9,9.6-13.7,9.7-16.7c0.4-6.5-1.7-13.2-0.1-19.6c1.5-6.2,5.2-7.5,10.7-9.8
						c10.2-4.2,20.6-4.7,28.4,4.9c0.5,0.8,0.7,2.2,0.6,3.2c-0.6,13-15.7,18.2-25,23.7c-7.4,4.4-19.8,14.1-9.6,20.8
						c8.5,5.7,24.2-7.4,32.5-12.4c10.9-6.6,23.3-9.5,34.7-15c8.3-3.9,15.9-9.1,24.1-13.2l0.2-0.1c-3.3-8.5-6.9-16.9-9.9-25.6
						c-1.2-3.4-3.3-7.9-4.4-11.9l-0.2,0.1c-10.8,0-21.6-0.2-32.2-2.1C1163.2,58.8,1152.5,53.7,1144.9,56.6z M1135.9,126.6
						c0.7,0.4,2.7,4.1,3,5.2c1.3,4.2-9.3,9.4-12.8,7.9C1115.7,135.1,1130.2,123.3,1135.9,126.6z"/>
				</g>
				<polygon opacity="0.2" points="1137.7,59.8 1137.7,59.8 1137.7,59.8 				"/>
				<g>
					
						<rect x="1145.6" y="60.5" transform="matrix(-0.3213 0.947 -0.947 -0.3213 1578.5505 -1007.7276)" fill="#3A3A3A" width="9.5" height="2.6"/>
					
						<rect x="1146.7" y="44.6" transform="matrix(-0.3213 0.947 -0.947 -0.3213 1563.412 -1026.4952)" fill="#D6D1C4" width="5.6" height="4.8"/>
					
						<ellipse transform="matrix(-0.947 -0.3213 0.3213 -0.947 2111.0969 670.5052)" fill="#848484" cx="1110.9" cy="161.1" rx="0.8" ry="2.3"/>
					
						<rect x="1078.5" y="95.2" transform="matrix(-0.3213 0.947 -0.947 -0.3213 1589.7765 -939.7433)" fill="#565656" width="106.3" height="9.2"/>
					<polygon fill="#D6D1C4" points="1110,160.8 1111.7,161.4 1114.4,157.7 1118.9,151.6 1114.6,150.1 1110.2,148.7 1110.1,156.2 
											"/>
					<g>
						
							<rect x="1126.1" y="108.6" transform="matrix(-0.3213 0.947 -0.947 -0.3213 1596.463 -917.7374)" fill="#D6D1C4" width="2" height="9.2"/>
					</g>
					
						<rect x="1131.8" y="69.1" transform="matrix(-0.3213 0.947 -0.947 -0.3213 1584.9866 -995.6469)" fill="#D6D1C4" width="35" height="2"/>
				</g>
				<path fill="#C06B59" d="M1105.5,95.5c0.5,6.1,1.6,12.9,1.8,17.9c0.3,6.9,0.9,13.8,3.8,20.1c8.7,6.9,9.6-13.7,9.7-16.7
					c0.3-5.9-1.3-11.8-0.5-17.6c-1.4-4.2-5.6-7.1-10.4-6.3C1107.8,93.4,1106.4,94.3,1105.5,95.5z"/>
				<g>
					<path fill="#FEE1C7" d="M1126.1,139.7c3.5,1.5,14.2-3.6,12.8-7.9c-0.3-1.1-2.3-4.7-3-5.2
						C1130.2,123.3,1115.7,135.1,1126.1,139.7z"/>
					<path fill="#C06B59" d="M1135.4,119.3c-7.4,4.4-19.8,14.1-9.6,20.9c8.5,5.7,24.2-7.4,32.5-12.4c0.5-0.3,1-0.6,1.5-0.9
						c1.3-2.7,1.8-5.8,0.9-8.8c-1.3-4.4-5.3-7.5-9.7-7.7C1145.9,114,1139.9,116.6,1135.4,119.3z M1135.9,126.6
						c0.7,0.4,2.7,4.1,3,5.2c1.3,4.2-9.3,9.4-12.8,7.9C1115.7,135.1,1130.2,123.3,1135.9,126.6z"/>
				</g>
				<g>
					<g>
						<polygon fill="#DDDDDD" points="1244.2,96.9 1213.3,112 1185,54.3 1234.7,30 						"/>
						<polygon opacity="0.2" points="1244.2,96.9 1213.3,112 1205.3,95.7 1241.5,78 						"/>
					</g>
				</g>
				<path fill="#483F49" d="M1306,72.1c-44.9,14-78.5,34.4-78.5,34.4l-29.4-69.2c42.4-18.1,78-30,107.8-37.3V72.1z"/>
				<path fill="#554957" d="M1306,50.1c-42.3,11.5-76.8,30.1-87.1,36l-20.7-48.9c42.4-18.1,78-30,107.8-37.3V50.1z"/>
			</g>
		</g>
	</g>
</g>
<g>
	<circle fill="#FFFFFF" cx="842" cy="96.4" r="44"/>
	<circle fill="#BFBFBF" cx="842" cy="96.4" r="42.4"/>
	<path fill="#F9F9F9" d="M833.5,61.4l1.3,9.6c-12.5,3.5-20.7,15.8-18.9,29c2,14.4,15.3,24.5,29.8,22.5c14.4-2,24.5-15.3,22.5-29.8
		C866.3,79.5,855,70,842.1,70l-1.3-9.6c-0.3-2-2.1-3.4-4.1-3.1l-0.1,0C834.6,57.6,833.2,59.4,833.5,61.4z"/>
	<circle fill="#613232" cx="842" cy="96.4" r="21.6"/>
	<path fill="#545454" d="M812.1,115.8L812.1,115.8c1.3,2.1,3.9,2.7,5.7,1.4l14.4-10.7c0.7-0.5,0.6-1.9-0.1-3.1l0,0
		c-0.7-1.2-1.9-1.8-2.7-1.4l-15.9,8.3C811.4,111.2,810.8,113.8,812.1,115.8z"/>
</g>
<g>
	<circle fill="#FFFFFF" cx="533.7" cy="339.2" r="44"/>
	<circle fill="#BFBFBF" cx="533.7" cy="339.2" r="42.4"/>
	<path fill="#F9F9F9" d="M564.5,357.9l-7.7-5.8c6.3-11.3,3.5-25.9-7.1-33.9c-11.6-8.8-28.2-6.5-37,5.1c-8.8,11.6-6.5,28.2,5.1,37
		c10.6,8,25.4,6.8,34.6-2.4l7.7,5.8c1.6,1.2,3.9,0.9,5.1-0.7l0-0.1C566.4,361.4,566.1,359.1,564.5,357.9z"/>
	<circle fill="#613232" cx="533.7" cy="339.2" r="21.6"/>
	<path fill="#545454" d="M541.2,304.2L541.2,304.2c-2.4-0.6-4.6,0.9-5,3l-2.6,17.8c-0.1,0.9,0.9,1.8,2.3,2.1l0,0
		c1.4,0.3,2.7-0.1,2.9-0.9l5.4-17.2C544.9,307,543.5,304.8,541.2,304.2z"/>
</g>
<g>
	<g>
		<path fill="#F9F4F4" d="M260.2,368.1V89.7c0-6.7-5.4-12.2-12.2-12.2H85.2c-6.7,0-12.2,5.4-12.2,12.2v278.5
			c0,6.7,5.4,12.2,12.2,12.2h162.9C254.8,380.3,260.2,374.9,260.2,368.1z"/>
		<path fill="#C3C3C4" d="M236.4,368.1V89.7c0-2.8-2.3-5.1-5.1-5.1H130.4c-2.8,0-5.1,2.3-5.1,5.1v278.3c0,2.8,2.3,5.1,5.1,5.1h100.9
			C234.1,373.2,236.4,370.9,236.4,368.1z"/>
		<path fill="#4C4C4E" d="M232.3,102.9v-8.7c0-1.8-1.4-3.2-3.2-3.2h-0.5c-1.8,0-3.2,1.4-3.2,3.2v8.7c0,1.8,1.4,3.2,3.2,3.2h0.5
			C230.8,106,232.3,104.6,232.3,102.9z"/>
		<path fill="#4C4C4E" d="M222,102.9v-8.7c0-1.8-1.4-3.2-3.2-3.2h-8.7c-1.8,0-3.2,1.4-3.2,3.2v8.7c0,1.8,1.4,3.2,3.2,3.2h8.7
			C220.6,106,222,104.6,222,102.9z"/>
		<path fill="#4C4C4E" d="M232.3,122.9v-8.7c0-1.8-1.4-3.2-3.2-3.2h-0.5c-1.8,0-3.2,1.4-3.2,3.2v8.7c0,1.8,1.4,3.2,3.2,3.2h0.5
			C230.8,126.1,232.3,124.7,232.3,122.9z"/>
		<path fill="#4C4C4E" d="M222,122.9v-8.7c0-1.8-1.4-3.2-3.2-3.2h-8.7c-1.8,0-3.2,1.4-3.2,3.2v8.7c0,1.8,1.4,3.2,3.2,3.2h8.7
			C220.6,126.1,222,124.7,222,122.9z"/>
		<path fill="#4C4C4E" d="M232.3,143v-8.7c0-1.8-1.4-3.2-3.2-3.2h-0.5c-1.8,0-3.2,1.4-3.2,3.2v8.7c0,1.8,1.4,3.2,3.2,3.2h0.5
			C230.8,146.2,232.3,144.7,232.3,143z"/>
		<path fill="#4C4C4E" d="M222,143v-8.7c0-1.8-1.4-3.2-3.2-3.2h-8.7c-1.8,0-3.2,1.4-3.2,3.2v8.7c0,1.8,1.4,3.2,3.2,3.2h8.7
			C220.6,146.2,222,144.7,222,143z"/>
		<path fill="#4C4C4E" d="M232.3,163v-8.7c0-1.8-1.4-3.2-3.2-3.2h-0.5c-1.8,0-3.2,1.4-3.2,3.2v8.7c0,1.8,1.4,3.2,3.2,3.2h0.5
			C230.8,166.2,232.3,164.8,232.3,163z"/>
		<path fill="#4C4C4E" d="M222,163v-8.7c0-1.8-1.4-3.2-3.2-3.2h-8.7c-1.8,0-3.2,1.4-3.2,3.2v8.7c0,1.8,1.4,3.2,3.2,3.2h8.7
			C220.6,166.2,222,164.8,222,163z"/>
		<path fill="#4C4C4E" d="M232.3,183.1v-8.7c0-1.8-1.4-3.2-3.2-3.2h-0.5c-1.8,0-3.2,1.4-3.2,3.2v8.7c0,1.8,1.4,3.2,3.2,3.2h0.5
			C230.8,186.3,232.3,184.8,232.3,183.1z"/>
		<path fill="#4C4C4E" d="M222,183.1v-8.7c0-1.8-1.4-3.2-3.2-3.2h-8.7c-1.8,0-3.2,1.4-3.2,3.2v8.7c0,1.8,1.4,3.2,3.2,3.2h8.7
			C220.6,186.3,222,184.8,222,183.1z"/>
		<path fill="#4C4C4E" d="M232.3,203.1v-8.7c0-1.8-1.4-3.2-3.2-3.2h-0.5c-1.8,0-3.2,1.4-3.2,3.2v8.7c0,1.8,1.4,3.2,3.2,3.2h0.5
			C230.8,206.3,232.3,204.9,232.3,203.1z"/>
		<path fill="#4C4C4E" d="M222,203.1v-8.7c0-1.8-1.4-3.2-3.2-3.2h-8.7c-1.8,0-3.2,1.4-3.2,3.2v8.7c0,1.8,1.4,3.2,3.2,3.2h8.7
			C220.6,206.3,222,204.9,222,203.1z"/>
		<path fill="#4C4C4E" d="M232.3,223.2v-8.7c0-1.8-1.4-3.2-3.2-3.2h-0.5c-1.8,0-3.2,1.4-3.2,3.2v8.7c0,1.8,1.4,3.2,3.2,3.2h0.5
			C230.8,226.4,232.3,225,232.3,223.2z"/>
		<path fill="#4C4C4E" d="M222,223.2v-8.7c0-1.8-1.4-3.2-3.2-3.2h-8.7c-1.8,0-3.2,1.4-3.2,3.2v8.7c0,1.8,1.4,3.2,3.2,3.2h8.7
			C220.6,226.4,222,225,222,223.2z"/>
		<path fill="#4C4C4E" d="M232.3,243.3v-8.7c0-1.8-1.4-3.2-3.2-3.2h-0.5c-1.8,0-3.2,1.4-3.2,3.2v8.7c0,1.8,1.4,3.2,3.2,3.2h0.5
			C230.8,246.5,232.3,245,232.3,243.3z"/>
		<path fill="#4C4C4E" d="M222,243.3v-8.7c0-1.8-1.4-3.2-3.2-3.2h-8.7c-1.8,0-3.2,1.4-3.2,3.2v8.7c0,1.8,1.4,3.2,3.2,3.2h8.7
			C220.6,246.5,222,245,222,243.3z"/>
		<path fill="#4C4C4E" d="M232.3,263.3v-8.7c0-1.8-1.4-3.2-3.2-3.2h-0.5c-1.8,0-3.2,1.4-3.2,3.2v8.7c0,1.8,1.4,3.2,3.2,3.2h0.5
			C230.8,266.5,232.3,265.1,232.3,263.3z"/>
		<path fill="#4C4C4E" d="M222,263.3v-8.7c0-1.8-1.4-3.2-3.2-3.2h-8.7c-1.8,0-3.2,1.4-3.2,3.2v8.7c0,1.8,1.4,3.2,3.2,3.2h8.7
			C220.6,266.5,222,265.1,222,263.3z"/>
		<path fill="#4C4C4E" d="M232.3,283.4v-8.7c0-1.8-1.4-3.2-3.2-3.2h-0.5c-1.8,0-3.2,1.4-3.2,3.2v8.7c0,1.8,1.4,3.2,3.2,3.2h0.5
			C230.8,286.6,232.3,285.1,232.3,283.4z"/>
		<path fill="#4C4C4E" d="M222,283.4v-8.7c0-1.8-1.4-3.2-3.2-3.2h-8.7c-1.8,0-3.2,1.4-3.2,3.2v8.7c0,1.8,1.4,3.2,3.2,3.2h8.7
			C220.6,286.6,222,285.1,222,283.4z"/>
		<path fill="#4C4C4E" d="M232.3,303.4v-8.7c0-1.8-1.4-3.2-3.2-3.2h-0.5c-1.8,0-3.2,1.4-3.2,3.2v8.7c0,1.8,1.4,3.2,3.2,3.2h0.5
			C230.8,306.6,232.3,305.2,232.3,303.4z"/>
		<path fill="#4C4C4E" d="M222,303.4v-8.7c0-1.8-1.4-3.2-3.2-3.2h-8.7c-1.8,0-3.2,1.4-3.2,3.2v8.7c0,1.8,1.4,3.2,3.2,3.2h8.7
			C220.6,306.6,222,305.2,222,303.4z"/>
		<path fill="#4C4C4E" d="M232.3,323.5v-8.7c0-1.8-1.4-3.2-3.2-3.2h-0.5c-1.8,0-3.2,1.4-3.2,3.2v8.7c0,1.8,1.4,3.2,3.2,3.2h0.5
			C230.8,326.7,232.3,325.3,232.3,323.5z"/>
		<path fill="#4C4C4E" d="M222,323.5v-8.7c0-1.8-1.4-3.2-3.2-3.2h-8.7c-1.8,0-3.2,1.4-3.2,3.2v8.7c0,1.8,1.4,3.2,3.2,3.2h8.7
			C220.6,326.7,222,325.3,222,323.5z"/>
		<path fill="#4C4C4E" d="M232.3,343.6v-8.7c0-1.8-1.4-3.2-3.2-3.2h-0.5c-1.8,0-3.2,1.4-3.2,3.2v8.7c0,1.8,1.4,3.2,3.2,3.2h0.5
			C230.8,346.7,232.3,345.3,232.3,343.6z"/>
		<path fill="#4C4C4E" d="M222,343.6v-8.7c0-1.8-1.4-3.2-3.2-3.2h-8.7c-1.8,0-3.2,1.4-3.2,3.2v8.7c0,1.8,1.4,3.2,3.2,3.2h8.7
			C220.6,346.7,222,345.3,222,343.6z"/>
		<path fill="#4C4C4E" d="M232.3,363.6v-8.7c0-1.8-1.4-3.2-3.2-3.2h-0.5c-1.8,0-3.2,1.4-3.2,3.2v8.7c0,1.8,1.4,3.2,3.2,3.2h0.5
			C230.8,366.8,232.3,365.4,232.3,363.6z"/>
		<path fill="#4C4C4E" d="M222,363.6v-8.7c0-1.8-1.4-3.2-3.2-3.2h-8.7c-1.8,0-3.2,1.4-3.2,3.2v8.7c0,1.8,1.4,3.2,3.2,3.2h8.7
			C220.6,366.8,222,365.4,222,363.6z"/>
		<path fill="#4C4C4E" d="M203.7,107.9V94.2c0-1.8-1.4-3.2-3.2-3.2h-8.7c-1.8,0-3.2,1.4-3.2,3.2v13.7c0,1.8,1.4,3.2,3.2,3.2h8.7
			C202.3,111,203.7,109.6,203.7,107.9z"/>
		<path fill="#4C4C4E" d="M203.7,128.1v-8.7c0-1.8-1.4-3.2-3.2-3.2h-8.7c-1.8,0-3.2,1.4-3.2,3.2v8.7c0,1.8,1.4,3.2,3.2,3.2h8.7
			C202.3,131.3,203.7,129.8,203.7,128.1z"/>
		<path fill="#4C4C4E" d="M203.7,148.1v-8.7c0-1.8-1.4-3.2-3.2-3.2h-8.7c-1.8,0-3.2,1.4-3.2,3.2v8.7c0,1.8,1.4,3.2,3.2,3.2h8.7
			C202.3,151.3,203.7,149.9,203.7,148.1z"/>
		<path fill="#4C4C4E" d="M203.7,168.2v-8.7c0-1.8-1.4-3.2-3.2-3.2h-8.7c-1.8,0-3.2,1.4-3.2,3.2v8.7c0,1.8,1.4,3.2,3.2,3.2h8.7
			C202.3,171.4,203.7,170,203.7,168.2z"/>
		<path fill="#4C4C4E" d="M203.7,188.3v-8.7c0-1.8-1.4-3.2-3.2-3.2h-8.7c-1.8,0-3.2,1.4-3.2,3.2v8.7c0,1.8,1.4,3.2,3.2,3.2h8.7
			C202.3,191.4,203.7,190,203.7,188.3z"/>
		<path fill="#4C4C4E" d="M203.7,208.3v-8.7c0-1.8-1.4-3.2-3.2-3.2h-8.7c-1.8,0-3.2,1.4-3.2,3.2v8.7c0,1.8,1.4,3.2,3.2,3.2h8.7
			C202.3,211.5,203.7,210.1,203.7,208.3z"/>
		<path fill="#4C4C4E" d="M203.7,228.4v-8.7c0-1.8-1.4-3.2-3.2-3.2h-8.7c-1.8,0-3.2,1.4-3.2,3.2v8.7c0,1.8,1.4,3.2,3.2,3.2h8.7
			C202.3,231.6,203.7,230.1,203.7,228.4z"/>
		<path fill="#4C4C4E" d="M203.7,248.4v-8.7c0-1.8-1.4-3.2-3.2-3.2h-8.7c-1.8,0-3.2,1.4-3.2,3.2v8.7c0,1.8,1.4,3.2,3.2,3.2h8.7
			C202.3,251.6,203.7,250.2,203.7,248.4z"/>
		<path fill="#4C4C4E" d="M203.7,268.5v-8.7c0-1.8-1.4-3.2-3.2-3.2h-8.7c-1.8,0-3.2,1.4-3.2,3.2v8.7c0,1.8,1.4,3.2,3.2,3.2h8.7
			C202.3,271.7,203.7,270.2,203.7,268.5z"/>
		<path fill="#4C4C4E" d="M203.7,303.4v-8.5c0-1.8,0-3.2,0-3.3c0,0,0-1.5,0-3.3v-8.5c0-1.8-1.4-3.2-3.2-3.2h-8.7
			c-1.8,0-3.2,1.4-3.2,3.2v8.5c0,1.8,0,3.2,0,3.3c0,0,0,1.5,0,3.3v8.5c0,1.8,1.4,3.2,3.2,3.2h8.7
			C202.3,306.6,203.7,305.2,203.7,303.4z"/>
		<path fill="#4C4C4E" d="M203.7,323.5v-8.7c0-1.8-1.4-3.2-3.2-3.2h-8.7c-1.8,0-3.2,1.4-3.2,3.2v8.7c0,1.8,1.4,3.2,3.2,3.2h8.7
			C202.3,326.7,203.7,325.3,203.7,323.5z"/>
		<path fill="#4C4C4E" d="M203.7,343.6v-8.7c0-1.8-1.4-3.2-3.2-3.2h-8.7c-1.8,0-3.2,1.4-3.2,3.2v8.7c0,1.8,1.4,3.2,3.2,3.2h8.7
			C202.3,346.7,203.7,345.3,203.7,343.6z"/>
		<path fill="#4C4C4E" d="M203.7,363.6v-8.7c0-1.8-1.4-3.2-3.2-3.2h-8.7c-1.8,0-3.2,1.4-3.2,3.2v8.7c0,1.8,1.4,3.2,3.2,3.2h8.7
			C202.3,366.8,203.7,365.4,203.7,363.6z"/>
		<path fill="#4C4C4E" d="M185.2,122.9v-5.4c0-1.8,0-3.9,0-4.8c0-0.9,0-3.1,0-4.8V94.2c0-1.8-1.4-3.2-3.2-3.2h-8.7
			c-1.8,0-3.2,1.4-3.2,3.2v13.7c0,1.8,0,3.9,0,4.8c0,0.9,0,3.1,0,4.8v5.4c0,1.8,1.4,3.2,3.2,3.2h8.7
			C183.8,126.1,185.2,124.7,185.2,122.9z"/>
		<path fill="#4C4C4E" d="M185.2,143v-8.7c0-1.8-1.4-3.2-3.2-3.2h-8.7c-1.8,0-3.2,1.4-3.2,3.2v8.7c0,1.8,1.4,3.2,3.2,3.2h8.7
			C183.8,146.2,185.2,144.7,185.2,143z"/>
		<path fill="#4C4C4E" d="M185.2,163v-8.7c0-1.8-1.4-3.2-3.2-3.2h-8.7c-1.8,0-3.2,1.4-3.2,3.2v8.7c0,1.8,1.4,3.2,3.2,3.2h8.7
			C183.8,166.2,185.2,164.8,185.2,163z"/>
		<path fill="#4C4C4E" d="M185.2,183.1v-8.7c0-1.8-1.4-3.2-3.2-3.2h-8.7c-1.8,0-3.2,1.4-3.2,3.2v8.7c0,1.8,1.4,3.2,3.2,3.2h8.7
			C183.8,186.3,185.2,184.8,185.2,183.1z"/>
		<path fill="#4C4C4E" d="M185.2,203.1v-8.7c0-1.8-1.4-3.2-3.2-3.2h-8.7c-1.8,0-3.2,1.4-3.2,3.2v8.7c0,1.8,1.4,3.2,3.2,3.2h8.7
			C183.8,206.3,185.2,204.9,185.2,203.1z"/>
		<path fill="#4C4C4E" d="M185.2,223.2v-8.7c0-1.8-1.4-3.2-3.2-3.2h-8.7c-1.8,0-3.2,1.4-3.2,3.2v8.7c0,1.8,1.4,3.2,3.2,3.2h8.7
			C183.8,226.4,185.2,225,185.2,223.2z"/>
		<path fill="#4C4C4E" d="M185.2,243.3v-8.7c0-1.8-1.4-3.2-3.2-3.2h-8.7c-1.8,0-3.2,1.4-3.2,3.2v8.7c0,1.8,1.4,3.2,3.2,3.2h8.7
			C183.8,246.5,185.2,245,185.2,243.3z"/>
		<path fill="#4C4C4E" d="M185.2,263.3v-8.7c0-1.8-1.4-3.2-3.2-3.2h-8.7c-1.8,0-3.2,1.4-3.2,3.2v8.7c0,1.8,1.4,3.2,3.2,3.2h8.7
			C183.8,266.5,185.2,265.1,185.2,263.3z"/>
		<path fill="#4C4C4E" d="M185.2,283.4v-8.7c0-1.8-1.4-3.2-3.2-3.2h-8.7c-1.8,0-3.2,1.4-3.2,3.2v8.7c0,1.8,1.4,3.2,3.2,3.2h8.7
			C183.8,286.6,185.2,285.1,185.2,283.4z"/>
		<path fill="#4C4C4E" d="M185.2,323.5v-8.7c0-1.8-1.4-3.2-3.2-3.2h-8.7c-1.8,0-3.2,1.4-3.2,3.2v8.7c0,1.8,1.4,3.2,3.2,3.2h8.7
			C183.8,326.7,185.2,325.3,185.2,323.5z"/>
		<path fill="#4C4C4E" d="M185.2,343.6v-8.7c0-1.8-1.4-3.2-3.2-3.2h-8.7c-1.8,0-3.2,1.4-3.2,3.2v8.7c0,1.8,1.4,3.2,3.2,3.2h8.7
			C183.8,346.7,185.2,345.3,185.2,343.6z"/>
		<path fill="#4C4C4E" d="M185.2,363.6v-8.7c0-1.8-1.4-3.2-3.2-3.2h-8.7c-1.8,0-3.2,1.4-3.2,3.2v8.7c0,1.8,1.4,3.2,3.2,3.2h8.7
			C183.8,366.8,185.2,365.4,185.2,363.6z"/>
		<path fill="#4C4C4E" d="M167.1,115.4V94.2c0-1.8-1.4-3.2-3.2-3.2h-8.7c-1.8,0-3.2,1.4-3.2,3.2v21.2c0,1.8,1.4,3.2,3.2,3.2h8.7
			C165.7,118.6,167.1,117.1,167.1,115.4z"/>
		<path fill="#4C4C4E" d="M167.1,135.2v-8.7c0-1.8-1.4-3.2-3.2-3.2h-8.7c-1.8,0-3.2,1.4-3.2,3.2v8.7c0,1.8,1.4,3.2,3.2,3.2h8.7
			C165.7,138.4,167.1,136.9,167.1,135.2z"/>
		<path fill="#4C4C4E" d="M167.1,155.2v-8.7c0-1.8-1.4-3.2-3.2-3.2h-8.7c-1.8,0-3.2,1.4-3.2,3.2v8.7c0,1.8,1.4,3.2,3.2,3.2h8.7
			C165.7,158.4,167.1,157,167.1,155.2z"/>
		<path fill="#4C4C4E" d="M167.1,175.3v-8.7c0-1.8-1.4-3.2-3.2-3.2h-8.7c-1.8,0-3.2,1.4-3.2,3.2v8.7c0,1.8,1.4,3.2,3.2,3.2h8.7
			C165.7,178.5,167.1,177.1,167.1,175.3z"/>
		<path fill="#4C4C4E" d="M167.1,195.4v-8.7c0-1.8-1.4-3.2-3.2-3.2h-8.7c-1.8,0-3.2,1.4-3.2,3.2v8.7c0,1.8,1.4,3.2,3.2,3.2h8.7
			C165.7,198.5,167.1,197.1,167.1,195.4z"/>
		<path fill="#4C4C4E" d="M167.1,215.4v-8.7c0-1.8-1.4-3.2-3.2-3.2h-8.7c-1.8,0-3.2,1.4-3.2,3.2v8.7c0,1.8,1.4,3.2,3.2,3.2h8.7
			C165.7,218.6,167.1,217.2,167.1,215.4z"/>
		<path fill="#4C4C4E" d="M167.1,235.5v-8.7c0-1.8-1.4-3.2-3.2-3.2h-8.7c-1.8,0-3.2,1.4-3.2,3.2v8.7c0,1.8,1.4,3.2,3.2,3.2h8.7
			C165.7,238.7,167.1,237.2,167.1,235.5z"/>
		<path fill="#4C4C4E" d="M167.1,255.5v-8.7c0-1.8-1.4-3.2-3.2-3.2h-8.7c-1.8,0-3.2,1.4-3.2,3.2v8.7c0,1.8,1.4,3.2,3.2,3.2h8.7
			C165.7,258.7,167.1,257.3,167.1,255.5z"/>
		<path fill="#4C4C4E" d="M167.1,275.6v-8.7c0-1.8-1.4-3.2-3.2-3.2h-8.7c-1.8,0-3.2,1.4-3.2,3.2v8.7c0,1.8,1.4,3.2,3.2,3.2h8.7
			C165.7,278.8,167.1,277.3,167.1,275.6z"/>
		<path fill="#4C4C4E" d="M185.2,303.4v-8.7c0-1.8-1.4-3.2-3.2-3.2h-11.7c-1.8,0-3.2-1.4-3.2-3.2V287c0-1.8-1.4-3.2-3.2-3.2h-8.7
			c-1.8,0-3.2,1.4-3.2,3.2v1.4c0,1.8,0,4.6,0,6.4v0.9c0,1.8,0,4.6,0,6.4v1.4c0,1.8,1.4,3.2,3.2,3.2h4.3c1.8,0,4.2,0,5.4,0
			c1.2,0,3.6,0,5.4,0H182C183.8,306.6,185.2,305.2,185.2,303.4z"/>
		<path fill="#4C4C4E" d="M167.1,323.5v-8.7c0-1.8-1.4-3.2-3.2-3.2h-8.7c-1.8,0-3.2,1.4-3.2,3.2v8.7c0,1.8,1.4,3.2,3.2,3.2h8.7
			C165.7,326.7,167.1,325.3,167.1,323.5z"/>
		<path fill="#4C4C4E" d="M167.1,343.6v-8.7c0-1.8-1.4-3.2-3.2-3.2h-8.7c-1.8,0-3.2,1.4-3.2,3.2v8.7c0,1.8,1.4,3.2,3.2,3.2h8.7
			C165.7,346.7,167.1,345.3,167.1,343.6z"/>
		<path fill="#4C4C4E" d="M167.1,363.6v-8.7c0-1.8-1.4-3.2-3.2-3.2h-8.7c-1.8,0-3.2,1.4-3.2,3.2v8.7c0,1.8,1.4,3.2,3.2,3.2h8.7
			C165.7,366.8,167.1,365.4,167.1,363.6z"/>
		<path fill="#4C4C4E" d="M149,102.9v-8.7c0-1.8-1.4-3.2-3.2-3.2h-8.7c-1.8,0-3.2,1.4-3.2,3.2v8.7c0,1.8,1.4,3.2,3.2,3.2h8.7
			C147.6,106,149,104.6,149,102.9z"/>
		<path fill="#4C4C4E" d="M149,122.9v-8.7c0-1.8-1.4-3.2-3.2-3.2h-8.7c-1.8,0-3.2,1.4-3.2,3.2v8.7c0,1.8,1.4,3.2,3.2,3.2h8.7
			C147.6,126.1,149,124.7,149,122.9z"/>
		<path fill="#4C4C4E" d="M149,143v-8.7c0-1.8-1.4-3.2-3.2-3.2h-8.7c-1.8,0-3.2,1.4-3.2,3.2v8.7c0,1.8,1.4,3.2,3.2,3.2h8.7
			C147.6,146.2,149,144.7,149,143z"/>
		<path fill="#4C4C4E" d="M149,243.3v-88.9c0-1.8-1.4-3.2-3.2-3.2h-8.7c-1.8,0-3.2,1.4-3.2,3.2v88.9c0,1.8,1.4,3.2,3.2,3.2h8.7
			C147.6,246.5,149,245,149,243.3z"/>
		<path fill="#4C4C4E" d="M149,263.3v-8.7c0-1.8-1.4-3.2-3.2-3.2h-8.7c-1.8,0-3.2,1.4-3.2,3.2v8.7c0,1.8,1.4,3.2,3.2,3.2h8.7
			C147.6,266.5,149,265.1,149,263.3z"/>
		<path fill="#4C4C4E" d="M149,283.4v-8.7c0-1.8-1.4-3.2-3.2-3.2h-8.7c-1.8,0-3.2,1.4-3.2,3.2v8.7c0,1.8,1.4,3.2,3.2,3.2h8.7
			C147.6,286.6,149,285.1,149,283.4z"/>
		<path fill="#4C4C4E" d="M149,303.4v-8.7c0-1.8-1.4-3.2-3.2-3.2h-8.7c-1.8,0-3.2,1.4-3.2,3.2v8.7c0,1.8,1.4,3.2,3.2,3.2h8.7
			C147.6,306.6,149,305.2,149,303.4z"/>
		<path fill="#4C4C4E" d="M149,323.5v-8.7c0-1.8-1.4-3.2-3.2-3.2h-8.7c-1.8,0-3.2,1.4-3.2,3.2v8.7c0,1.8,1.4,3.2,3.2,3.2h8.7
			C147.6,326.7,149,325.3,149,323.5z"/>
		<path fill="#4C4C4E" d="M149,343.6v-8.7c0-1.8-1.4-3.2-3.2-3.2h-8.7c-1.8,0-3.2,1.4-3.2,3.2v8.7c0,1.8,1.4,3.2,3.2,3.2h8.7
			C147.6,346.7,149,345.3,149,343.6z"/>
		<path fill="#4C4C4E" d="M149,363.6v-8.7c0-1.8-1.4-3.2-3.2-3.2h-8.7c-1.8,0-3.2,1.4-3.2,3.2v8.7c0,1.8,1.4,3.2,3.2,3.2h8.7
			C147.6,366.8,149,365.4,149,363.6z"/>
		<path fill="#C3C3C4" d="M120.8,252.1v-46.4c0-3-2.4-5.5-5.5-5.5H91.4c-3,0-5.5,2.4-5.5,5.5v46.4c0,3,2.4,5.5,5.5,5.5h23.9
			C118.3,257.6,120.8,255.1,120.8,252.1z"/>
		<path fill="#E3E3E3" d="M402.3,414.6V43.1c0-4.9-6.4-8.9-14.2-8.9h-0.1v389.4h0.1C395.9,423.6,402.3,419.6,402.3,414.6z"/>
		<path fill="#4C4C4E" d="M397.8,410.3V47.5c0-9.3-5.4-15-11.9-12.8L267,76c-2.3,0.8-4.2,4.8-4.2,9v287.7c0,4.2,1.9,8.2,4.2,9
			l118.8,41.3C392.4,425.4,397.8,419.7,397.8,410.3z"/>
		<g>
			<polygon fill="#F0F2F2" points="270.4,90.2 270.4,367.6 380.7,402.5 380.7,55.3 			"/>
			<polygon fill="#28B5E5" points="347.6,125.4 320.7,130.8 320.7,184.2 347.6,181.7 			"/>
			<polygon fill="#BFBFBF" points="341,194.4 341,319.5 347.6,320.6 347.6,193.9 			"/>
			<polygon fill="#BFBFBF" points="330.9,195.1 330.9,317.7 337.2,318.8 337.2,194.6 			"/>
			<polygon fill="#BFBFBF" points="319.8,195.8 319.8,315.7 325.8,316.8 325.8,195.4 			"/>
			<polygon fill="#BFBFBF" points="309.1,133.1 309.1,313.8 314.9,314.8 314.9,132 			"/>
			<polygon fill="#BFBFBF" points="299.4,135.1 299.4,312.1 304.9,313 304.9,134 			"/>
			<polygon fill="#BFBFBF" points="290,137 290,310.4 295.3,311.3 295.3,135.9 			"/>
			<polygon fill="#BFBFBF" points="281.1,138.8 281.1,308.8 286.2,309.7 286.2,137.8 			"/>
			<polygon fill="#FB8AC3" points="353.2,157.7 353.2,300.1 363,301.4 363,156.4 			"/>
		</g>
		<g>
			<path fill="#323B3E" d="M265.2,140.7v-25.8c0-2.3-1-4.2-2.1-4.2h-3.2c-1.2,0-2.1,1.9-2.1,4.2v25.8c0,2.3,1,4.2,2.1,4.2h3.2
				C264.2,144.9,265.2,143,265.2,140.7z"/>
			<path fill="#323B3E" d="M265.2,342.9v-25.8c0-2.3-1-4.2-2.1-4.2h-3.2c-1.2,0-2.1,1.9-2.1,4.2v25.8c0,2.3,1,4.2,2.1,4.2h3.2
				C264.2,347.1,265.2,345.2,265.2,342.9z"/>
		</g>
	</g>
	<g>
		<g>
			<g>
				<g id="XMLID_14_">
					<g>
						<path fill="#FEE1C7" d="M129.9,177c0.6-0.7-3.5-10.8-5.9-9.8c-0.7,0.3-1.6,1-1.5,1.4c0.1,0.3,0.2,0.6,0.4,0.9
							c0.5,0.7,1,1.6,1.4,2.4c0,0,0,0,0,0c0.2,0.4,0.5,0.8,0.7,1.1c1,1.6,2.4,3.6,4.2,3.9c0,0,0.1,0,0.1,0
							C129.4,177,129.6,177,129.9,177C129.8,177,129.9,177,129.9,177z"/>
						<path fill="#FEE1C7" d="M191.7,183.5c0-2.7-5.2-8.8-7.9-6.9c-0.7,0.5-2.1,2.3-2.3,2.9C180,184.4,191.5,191,191.7,183.5z"/>
						<path fill="#FEE1C7" d="M204.1,169.1c0.3-2.6-4.2-9.3-7.1-7.7c-0.7,0.4-2.3,2.1-2.6,2.6C192.4,168.8,203.2,176.5,204.1,169.1z
							"/>
						<path fill="#FEE1C7" d="M211.2,152c0.3-2.5-3.9-8.6-6.6-7.2c-0.7,0.4-2.2,1.9-2.4,2.5C200.3,151.7,210.3,159,211.2,152z"/>
						<path fill="#FCC1A4" d="M181.2,169.4c-4.7-6.3-8.3-10.5-14.9-15c-7.2-4.8-9-7.2-16.1-11.9l0,0c-0.5-0.3-1.2-0.9-1.3-1.5
							c0-0.7,0.7-1,1.2-0.7c9.2,3.7,25.1,10.9,32.5,17.8c4.1,3.8,12.4,16.9,19.6,14.1c8-3.2-5.3-16.4-8.3-19.7
							c-5.3-5.7-9.3-9.2-16.3-13.1c-7.6-4.2-12.9-7.2-20.6-11.4c-2-1-1.3-3.6,0.8-2.9c9.2,3.7,24.1,9.1,31.5,16
							c4.1,3.8,12.4,16.9,19.6,14.1c8-3.2-5.3-16.4-8.3-19.7c-5.3-5.7-9.3-9.2-16.3-13.1c-7.6-4.2-12.9-7.2-20.6-11.4l0,0
							c-1-0.6-2.3-1.4-2.4-2.5c-0.2-1.8,1.3-2.1,2.7-1.6l0,0c8.3,2.5,19,5.3,25.8,11.1c3.8,3.2,11.6,14.7,18,11.2
							c1-0.5,1.5-1.2,1.9-1.9c-2,4.1-10.1-2.1-8.6-6c0.2-0.5,1.6-2.1,2.3-2.5c1.7-0.9,3.9,1,5.4,3.3c-2.3-4.3-7.4-8.9-9.1-10.6
							c-4.9-4.9-9.6-8.4-15.9-11.3c-6.9-3.2-14.4-6.5-21.4-9.7c-4.3-1.6-8.6-5-12.9-7c-8.1-3.7-18-7.6-26.9-8.6
							c-4-0.4-7.9,0.6-11.7,0.4c-5.9-0.3-16.2-5.6-21.9-8l-0.2-0.1c-2.1,1.1-4,4.7-5,6.7c-1.9,3.7-3.1,6.9-4.5,10.8
							c-2.8,7.7-5.7,15.3-8,23.2c-0.5,1.7-0.8,3.4-1.5,5l0,0.1c5.5,2,11.8,6.2,16.3,8.9l0.3,0c-0.1,3.5,0.5,7,1.8,10
							c1.9,4.5,4.2,6.6,7,10.4c5.4,7.1,8.8,12.7,15.8,17.4c3.5,2.4,7.6,4.9,10.7,8c0.5,0.5,1,1.2,1.5,2c-0.2-0.3-0.3-0.6-0.4-0.9
							c-0.2-0.4,0.8-1.1,1.5-1.4c2.5-1,6.6,9,5.9,9.8c9.9-1.4,5.2-13.6,2.3-17.5c-5.2-7-13.6-12.8-16.3-19.8
							c6.2-1.8,21,12.1,26.3,15l0,0c8.9,6,17.2,9.2,23.9,16.8c3.7,4.2,16,18.3,23.4,15.6C197.7,184.1,184,173.1,181.2,169.4z
							 M204.1,169.1c-0.9,7.5-11.7-0.3-9.7-5c0.2-0.6,1.8-2.2,2.6-2.6C199.9,159.8,204.4,166.4,204.1,169.1z M211.2,152
							c-0.9,6.9-10.9-0.3-9-4.7c0.2-0.5,1.7-2.1,2.4-2.5C207.3,143.4,211.5,149.6,211.2,152z M181.5,179.5c0.2-0.6,1.6-2.4,2.3-2.9
							c2.7-1.9,7.9,4.2,7.9,6.9C191.5,191,180,184.4,181.5,179.5z"/>
						<path fill="#FEE1C7" d="M209.7,127.2c0.6-1.5,0.1-3.3-0.9-5.2c-1.4-2.2-3.7-4.2-5.4-3.3c-0.7,0.4-2.1,1.9-2.3,2.5
							C199.6,125.1,207.7,131.3,209.7,127.2z"/>
					</g>
				</g>
			</g>
		</g>
		<g>
			<g>
				<polygon fill="#DDDDDD" points="43.2,102.5 74.1,117.6 102.4,59.9 52.7,35.6 				"/>
				<polygon opacity="0.2" points="43.2,102.5 74.1,117.6 82.1,101.3 45.9,83.6 				"/>
			</g>
			<g>
				<path fill="#21588B" d="M0,84.2c35.3,13.1,59.9,28.1,59.9,28.1L89.2,43C55.3,28.5,25.7,18,0,10.7V84.2z"/>
				<path fill="#2C75BA" d="M0,61.5c33.6,11.2,59.8,25.4,68.5,30.4L89.2,43C55.3,28.5,25.7,18,0,10.7V61.5z"/>
			</g>
		</g>
		<g>
			<g>
				<g id="XMLID_15_">
					<g>
						<path fill="#FEE1C7" d="M129.9,279c0.6,0.7-3.5,10.8-5.9,9.8c-0.7-0.3-1.6-1-1.5-1.4c0.1-0.3,0.2-0.6,0.4-0.9
							c0.5-0.7,1-1.6,1.4-2.4c0,0,0,0,0,0c0.2-0.4,0.5-0.8,0.7-1.1c1-1.6,2.4-3.6,4.2-3.9c0,0,0.1,0,0.1,0
							C129.4,279,129.6,279,129.9,279C129.8,279,129.9,279,129.9,279z"/>
						<path fill="#FEE1C7" d="M191.7,272.5c0,2.7-5.2,8.8-7.9,6.9c-0.7-0.5-2.1-2.3-2.3-2.9C180,271.6,191.5,265,191.7,272.5z"/>
						<path fill="#FEE1C7" d="M204.1,286.9c0.3,2.6-4.2,9.3-7.1,7.7c-0.7-0.4-2.3-2.1-2.6-2.6C192.4,287.2,203.2,279.5,204.1,286.9z
							"/>
						<path fill="#FEE1C7" d="M211.2,304c0.3,2.5-3.9,8.6-6.6,7.2c-0.7-0.4-2.2-1.9-2.4-2.5C200.3,304.3,210.3,297,211.2,304z"/>
						<path fill="#FCC1A4" d="M189.4,268.9c-7.5-2.7-19.7,11.4-23.4,15.6c-6.7,7.6-15,10.8-23.9,16.8l0,0
							c-5.3,2.8-20.1,16.7-26.3,15c2.8-7,11.1-12.8,16.3-19.8c2.9-4,7.6-16.1-2.3-17.5c0.6,0.7-3.5,10.8-5.9,9.8
							c-0.7-0.3-1.6-1-1.5-1.4c0.1-0.3,0.2-0.6,0.4-0.9c-0.5,0.8-1,1.5-1.5,2c-3.1,3.1-7.2,5.6-10.7,8c-6.9,4.7-10.4,10.3-15.8,17.4
							c-2.8,3.7-5.1,5.9-7,10.4c-1.3,3-1.9,6.6-1.8,10l-0.3,0c-4.5,2.8-10.7,7-16.3,8.9l0,0.1c0.7,1.6,1,3.3,1.5,5
							c2.3,7.8,5.1,15.5,8,23.2c1.4,3.9,2.7,7.1,4.5,10.8c1,2,2.9,5.5,5,6.7l0.2-0.1c5.7-2.4,16-7.7,21.9-8
							c3.9-0.2,7.8,0.8,11.7,0.4c8.9-1,18.8-5,26.9-8.6c4.4-2,8.7-5.3,12.9-7c7-3.2,14.5-6.5,21.4-9.7c6.4-3,11-6.5,15.9-11.3
							c1.7-1.7,6.8-6.3,9.1-10.6c-1.4,2.2-3.7,4.2-5.4,3.3c-0.7-0.4-2.1-1.9-2.3-2.5c-1.5-3.8,6.6-10,8.6-6
							c-0.3-0.8-0.9-1.4-1.9-1.9c-6.3-3.5-14.2,8-18,11.2c-6.8,5.8-17.5,8.6-25.8,11.1l0,0c-1.4,0.5-2.9,0.2-2.7-1.6
							c0.1-1.1,1.5-1.9,2.4-2.5l0,0c7.7-4.2,13-7.2,20.6-11.4c7-3.9,11-7.4,16.3-13.1c3.1-3.3,16.3-16.5,8.3-19.7
							c-7.2-2.9-15.5,10.2-19.6,14.1c-7.4,6.9-22.3,12.4-31.5,16c-2.1,0.7-2.8-1.9-0.8-2.9c7.7-4.2,13-7.2,20.6-11.4
							c7-3.9,11-7.4,16.3-13.1c3.1-3.3,16.3-16.5,8.3-19.7c-7.2-2.9-15.5,10.2-19.6,14.1c-7.4,6.9-23.3,14.2-32.5,17.8
							c-0.5,0.3-1.3,0-1.2-0.7c0-0.6,0.8-1.2,1.3-1.5l0,0c7.2-4.7,9-7.1,16.1-11.9c6.6-4.4,10.2-8.7,14.9-15
							C184,282.9,197.7,271.9,189.4,268.9z M196.9,294.6c-0.7-0.4-2.3-2.1-2.6-2.6c-2-4.7,8.8-12.5,9.7-5
							C204.4,289.6,199.9,296.2,196.9,294.6z M204.5,311.1c-0.7-0.4-2.2-1.9-2.4-2.5c-1.9-4.4,8.2-11.6,9-4.7
							C211.5,306.4,207.3,312.6,204.5,311.1z M191.7,272.5c0,2.7-5.2,8.8-7.9,6.9c-0.7-0.5-2.1-2.3-2.3-2.9
							C180,271.6,191.5,265,191.7,272.5z"/>
						<path fill="#FEE1C7" d="M209.7,328.8c0.6,1.5,0.1,3.3-0.9,5.2c-1.4,2.2-3.7,4.2-5.4,3.3c-0.7-0.4-2.1-1.9-2.3-2.5
							C199.6,330.9,207.7,324.7,209.7,328.8z"/>
					</g>
				</g>
			</g>
		</g>
		<g>
			<g>
				<polygon fill="#DDDDDD" points="43.2,353.5 74.1,338.3 102.4,396 52.7,420.4 				"/>
				<polygon opacity="0.2" points="43.2,353.5 74.1,338.3 82.1,354.7 45.9,372.4 				"/>
			</g>
			<g>
				<path fill="#21588B" d="M0,445.3c25.7-7.3,55.3-17.8,89.2-32.3l-29.4-69.2c0,0-24.6,15-59.9,28.1V445.3z"/>
				<path fill="#2C75BA" d="M0,445.3c25.7-7.3,55.3-17.8,89.2-32.3l-20.7-48.9c-8.7,5-34.9,19.2-68.5,30.4V445.3z"/>
			</g>
		</g>
	</g>
</g>
<g>
	<g>
		
			<rect x="474.5" y="113.6" transform="matrix(-0.7901 0.613 -0.613 -0.7901 1059.9313 -37.1612)" fill="#FAFAFA" width="123.7" height="98.7"/>
	</g>
	<g>
		<path fill="#3F3F3F" d="M613.2,153.7l-7.2,5.6c-0.3,0.3-0.9,0.1-1.2-0.3l-1.3-1.7c-0.3-0.4-0.3-1,0-1.2l7.2-5.6
			c0.3-0.3,0.9-0.1,1.2,0.3l1.3,1.7C613.6,152.9,613.6,153.4,613.2,153.7z"/>
	</g>
	<g>
		<path fill="#3F3F3F" d="M605.5,143.7l-7.2,5.6c-0.3,0.3-0.9,0.1-1.2-0.3l-1.3-1.7c-0.3-0.4-0.3-1,0-1.2l7.2-5.6
			c0.3-0.3,0.9-0.1,1.2,0.3l1.3,1.7C605.8,142.9,605.8,143.5,605.5,143.7z"/>
	</g>
	<g>
		<path fill="#3F3F3F" d="M597.8,133.7l-7.2,5.6c-0.3,0.3-0.9,0.1-1.2-0.3l-1.3-1.7c-0.3-0.4-0.3-1,0-1.2l7.2-5.6
			c0.3-0.3,0.9-0.1,1.2,0.3l1.3,1.7C598.1,132.9,598.1,133.5,597.8,133.7z"/>
	</g>
	<g>
		<path fill="#3F3F3F" d="M590,123.8l-7.2,5.6c-0.3,0.3-0.9,0.1-1.2-0.3l-1.3-1.7c-0.3-0.4-0.3-1,0-1.2l7.2-5.6
			c0.3-0.3,0.9-0.1,1.2,0.3l1.3,1.7C590.4,123,590.4,123.5,590,123.8z"/>
	</g>
	<g>
		<path fill="#3F3F3F" d="M582.3,113.8l-7.2,5.6c-0.3,0.3-0.9,0.1-1.2-0.3l-1.3-1.7c-0.3-0.4-0.3-1,0-1.2l7.2-5.6
			c0.3-0.3,0.9-0.1,1.2,0.3l1.3,1.7C582.6,113,582.6,113.5,582.3,113.8z"/>
	</g>
	<g>
		<path fill="#3F3F3F" d="M574.6,103.8l-7.2,5.6c-0.3,0.3-0.9,0.1-1.2-0.3l-1.3-1.7c-0.3-0.4-0.3-1,0-1.2l7.2-5.6
			c0.3-0.3,0.9-0.1,1.2,0.3l1.3,1.7C574.9,103,574.9,103.6,574.6,103.8z"/>
	</g>
	<g>
		<path fill="#3F3F3F" d="M566.8,93.9l-7.2,5.6c-0.3,0.3-0.9,0.1-1.2-0.3l-1.3-1.7c-0.3-0.4-0.3-1,0-1.2l7.2-5.6
			c0.3-0.3,0.9-0.1,1.2,0.3l1.3,1.7C567.2,93,567.2,93.6,566.8,93.9z"/>
	</g>
	<g>
		
			<rect x="570.2" y="93.4" transform="matrix(-0.7901 0.613 -0.613 -0.7901 1104.9301 -105.4304)" fill="#5B5B5B" width="0.6" height="86.1"/>
	</g>
	<g>
		
			<rect x="565.1" y="97.4" transform="matrix(-0.7901 0.613 -0.613 -0.7901 1098.2135 -95.2905)" fill="#5B5B5B" width="0.6" height="86.1"/>
	</g>
	<g>
		
			<rect x="560" y="101.3" transform="matrix(-0.7901 0.613 -0.613 -0.7901 1091.5366 -85.061)" fill="#5B5B5B" width="0.6" height="86.1"/>
	</g>
	<g>
		
			<rect x="554.9" y="105.3" transform="matrix(-0.7901 0.613 -0.613 -0.7901 1084.8386 -74.8764)" fill="#5B5B5B" width="0.6" height="86.1"/>
	</g>
	<g>
		
			<rect x="549.8" y="109.2" transform="matrix(-0.7901 0.613 -0.613 -0.7901 1078.1483 -64.6736)" fill="#5B5B5B" width="0.6" height="86.1"/>
	</g>
	<g>
		
			<rect x="544.8" y="113.2" transform="matrix(-0.7902 0.6129 -0.6129 -0.7902 1071.4866 -54.4067)" fill="#5B5B5B" width="0.6" height="86.1"/>
	</g>
	<g>
		
			<rect x="539.7" y="117.1" transform="matrix(-0.7901 0.613 -0.613 -0.7901 1064.7498 -44.3289)" fill="#5B5B5B" width="0.6" height="86.1"/>
	</g>
	<g>
		
			<rect x="534.6" y="121.1" transform="matrix(-0.7902 0.6128 -0.6128 -0.7902 1058.121 -33.9671)" fill="#5B5B5B" width="0.6" height="86.1"/>
	</g>
	<g>
		
			<rect x="529.5" y="125" transform="matrix(-0.7901 0.613 -0.613 -0.7901 1051.3776 -23.9075)" fill="#5B5B5B" width="0.6" height="86.1"/>
	</g>
	<g>
		
			<rect x="524.4" y="129" transform="matrix(-0.7902 0.6128 -0.6128 -0.7902 1044.726 -13.5983)" fill="#5B5B5B" width="0.6" height="86.1"/>
	</g>
	<g>
		
			<rect x="519.3" y="132.9" transform="matrix(-0.7902 0.6129 -0.6129 -0.7902 1038.0161 -3.4468)" fill="#5B5B5B" width="0.6" height="86.1"/>
	</g>
	<g>
		
			<rect x="514.2" y="136.9" transform="matrix(-0.7901 0.613 -0.613 -0.7901 1031.2859 6.6329)" fill="#5B5B5B" width="0.6" height="86.1"/>
	</g>
	<g>
		
			<rect x="509.1" y="140.8" transform="matrix(-0.7902 0.6129 -0.6129 -0.7902 1024.6211 16.912)" fill="#5B5B5B" width="0.6" height="86.1"/>
	</g>
	<g>
		
			<rect x="504" y="144.8" transform="matrix(-0.7901 0.6129 -0.6129 -0.7901 1017.9207 27.0826)" fill="#5B5B5B" width="0.6" height="86.1"/>
	</g>
	<g>
		
			<rect x="498.9" y="148.7" transform="matrix(-0.79 0.6131 -0.6131 -0.79 1011.2032 37.1956)" fill="#5B5B5B" width="0.6" height="86.1"/>
	</g>
	<g>
		
			<rect x="493.8" y="152.7" transform="matrix(-0.7901 0.613 -0.613 -0.7901 1004.5252 47.4379)" fill="#5B5B5B" width="0.6" height="86.1"/>
	</g>
</g>
</svg>
